{
  "version": 1,
  "projects": {
    "compare-cloud": {
      "root": "apps/compare-cloud",
      "sourceRoot": "apps/compare-cloud/src",
      "projectType": "application",
      "schematics": {},
      "architect": {
        "build": {
          "builder": "@nrwl/web:build",
          "options": {
            "outputPath": "dist/apps/compare-cloud",
            "index": "apps/compare-cloud/src/index.html",
            "main": "apps/compare-cloud/src/main.tsx",
            "polyfills": "apps/compare-cloud/src/polyfills.ts",
            "tsConfig": "apps/compare-cloud/tsconfig.app.json",
            "assets": [
              "apps/compare-cloud/src/favicon.ico",
              "apps/compare-cloud/src/assets"
            ],
            "styles": ["apps/compare-cloud/src/styles.scss"],
            "scripts": [],
            "webpackConfig": "@nrwl/react/plugins/webpack"
          },
          "configurations": {
            "production": {
              "fileReplacements": [
                {
                  "replace": "apps/compare-cloud/src/environments/environment.ts",
                  "with": "apps/compare-cloud/src/environments/environment.prod.ts"
                }
              ],
              "optimization": true,
              "outputHashing": "all",
              "sourceMap": false,
              "extractCss": true,
              "namedChunks": false,
              "extractLicenses": true,
              "vendorChunk": false,
              "budgets": [
                {
                  "type": "initial",
                  "maximumWarning": "2mb",
                  "maximumError": "5mb"
                }
              ]
            }
          }
        },
        "serve": {
          "builder": "@nrwl/web:dev-server",
          "options": {
            "buildTarget": "compare-cloud:build",
            "proxyConfig": "apps/compare-cloud/proxy.conf.json"
          },
          "configurations": {
            "production": {
              "buildTarget": "compare-cloud:build:production"
            }
          }
        },
        "lint": {
          "builder": "@nrwl/linter:lint",
          "options": {
            "linter": "eslint",
            "tsConfig": [
              "apps/compare-cloud/tsconfig.app.json",
              "apps/compare-cloud/tsconfig.spec.json"
            ],
            "exclude": ["**/node_modules/**", "!apps/compare-cloud/**/*"]
          }
        },
        "test": {
          "builder": "@nrwl/jest:jest",
          "options": {
            "jestConfig": "apps/compare-cloud/jest.config.js",
            "tsConfig": "apps/compare-cloud/tsconfig.spec.json",
            "passWithNoTests": true
          }
        }
      }
    },
    "compare-cloud-e2e": {
      "root": "apps/compare-cloud-e2e",
      "sourceRoot": "apps/compare-cloud-e2e/src",
      "projectType": "application",
      "architect": {
        "e2e": {
          "builder": "@nrwl/cypress:cypress",
          "options": {
            "cypressConfig": "apps/compare-cloud-e2e/cypress.json",
            "tsConfig": "apps/compare-cloud-e2e/tsconfig.e2e.json",
            "devServerTarget": "compare-cloud:serve"
          },
          "configurations": {
            "production": {
              "devServerTarget": "compare-cloud:serve:production"
            }
          }
        },
        "lint": {
          "builder": "@nrwl/linter:lint",
          "options": {
            "linter": "eslint",
            "tsConfig": ["apps/compare-cloud-e2e/tsconfig.e2e.json"],
            "exclude": ["**/node_modules/**", "!apps/compare-cloud-e2e/**/*"]
          }
        }
      }
    },
    "api": {
      "root": "apps/api",
      "sourceRoot": "apps/api/src",
      "projectType": "application",
      "prefix": "api",
      "schematics": {},
      "architect": {
        "build": {
          "builder": "@nrwl/node:build",
          "options": {
            "outputPath": "dist/apps/api",
            "main": "apps/api/src/main.ts",
            "tsConfig": "apps/api/tsconfig.app.json",
            "assets": ["apps/api/src/assets"]
          },
          "configurations": {
            "production": {
              "optimization": true,
              "extractLicenses": true,
              "inspect": false,
              "fileReplacements": [
                {
                  "replace": "apps/api/src/environments/environment.ts",
                  "with": "apps/api/src/environments/environment.prod.ts"
                }
              ]
            }
          }
        },
        "serve": {
          "builder": "@nrwl/node:execute",
          "options": {
            "buildTarget": "api:build"
          }
        },
        "lint": {
          "builder": "@nrwl/linter:lint",
          "options": {
            "linter": "eslint",
            "tsConfig": [
              "apps/api/tsconfig.app.json",
              "apps/api/tsconfig.spec.json"
            ],
            "exclude": ["**/node_modules/**", "!apps/api/**/*"]
          }
        },
        "test": {
          "builder": "@nrwl/jest:jest",
          "options": {
            "jestConfig": "apps/api/jest.config.js",
            "tsConfig": "apps/api/tsconfig.spec.json",
            "passWithNoTests": true
          }
        }
      }
    },
    "api-interfaces": {
      "root": "libs/api-interfaces",
      "sourceRoot": "libs/api-interfaces/src",
      "projectType": "library",
      "schematics": {},
      "architect": {
        "lint": {
          "builder": "@nrwl/linter:lint",
          "options": {
            "linter": "eslint",
            "tsConfig": [
              "libs/api-interfaces/tsconfig.lib.json",
              "libs/api-interfaces/tsconfig.spec.json"
            ],
            "exclude": ["**/node_modules/**", "!libs/api-interfaces/**/*"]
          }
        },
        "test": {
          "builder": "@nrwl/jest:jest",
          "options": {
            "jestConfig": "libs/api-interfaces/jest.config.js",
            "tsConfig": "libs/api-interfaces/tsconfig.spec.json",
            "passWithNoTests": true
          }
        }
      }
    },
    "shared": {
      "root": "libs/shared",
      "sourceRoot": "libs/shared/src",
      "projectType": "library",
      "schematics": {},
      "architect": {
        "lint": {
          "builder": "@nrwl/linter:lint",
          "options": {
            "linter": "eslint",
            "tsConfig": [
              "libs/shared/tsconfig.lib.json",
              "libs/shared/tsconfig.spec.json"
            ],
            "exclude": ["**/node_modules/**", "!libs/shared/**/*"]
          }
        },
        "test": {
          "builder": "@nrwl/jest:jest",
          "options": {
            "jestConfig": "libs/shared/jest.config.js",
            "tsConfig": "libs/shared/tsconfig.spec.json",
            "passWithNoTests": true
          }
        }
      }
    }
  },
  "cli": {
    "defaultCollection": "@nrwl/react"
  },
  "schematics": {
    "@nrwl/react": {
      "application": {
        "style": "scss",
        "linter": "eslint",
        "babel": true
      },
      "component": {
        "style": "scss"
      },
      "library": {
        "style": "scss",
        "linter": "eslint"
      }
    }
  },
  "defaultProject": "compare-cloud"
}
